<?xml version="1.0" encoding="UTF-8"?>
<svg id="Layer_1" data-name="Layer 1" xmlns="http://www.w3.org/2000/svg" viewBox="0 0 3169.1 986.32">
  <path d="m317.54,1.85c0-.9-1.7-.9-1.7-.9H10.04C6.54.95,3.14.95,3.14,6.15c0,4.3-.9,111.8,1.7,144.7,1.7,15.6,2.6,58.9,2.6,58.9v.9c0,4.3,3.5,8.7,6.9,8.7,0,0,14.7-.9,30.3,0,13,.9,25.1,4.3,35.5,14.7,12.1,12.1,7.8,30.3,9.5,48.5,2.6,22.5-4.3,217.4-3.5,253.8,0,5.2,3.5,8.7,6.9,8.7h134.3c4.3,0,6.9-3.5,6.9-8.7,0-13-1.7-266.8,2.6-296.3,1.7-10.4,7.8-14.7,11.3-17.3,10.4-6.9,35.5-.9,63.2-4.3,4.3-.9,6.9-4.3,6.9-9.5-.9-22.5.9-45,1.7-66.7,2-46.8-1.5-93.6-2.4-140.4h0Z" style="fill: #ee6c4d;"/>
  <path d="m611.24,529.41c22.5-9.5,30.3-19.1,48.5-44.2,26-36.4,24.3-102.2,24.3-149V6.11c0-2.6-1.7-5.2-3.5-5.2h-130.8c-2.6,0-4.3,2.6-4.3,6.1.9,24.3.9,49.4.9,73.6-.9,36.4-.9,156.8-1.7,180.2-.9,23.4,2.6,50.2-9.5,67.6-3.5,4.3-15.6,10.4-26,.9-9.5-9.5-11.3-37.2-13-60.6s0-134.3-.9-166.3V6.21c0-3.5-1.7-6.1-3.5-6.1h-121.3c-1.7,0-3.5,2.6-3.5,6.1v346.5c0,32.1.9,102.2,26.9,141.2,23.4,37.2,67.6,51.1,109.2,51.1h40.7c11.2,0,38.1-3.5,67.5-15.6Z" style="fill: #ee6c4d;"/>
  <path d="m1026.24,402.13c-10.4-34.7-27.7-43.3-19.9-51.1.6,0,.9-.3.9-.9.9-1.7,24.3-34.7,32.9-55.4,8.7-20.8,13-71.9,13-104,0-45.9,1.7-75.4-13.9-109.2-5.2-12.1-19.1-37.2-39-54.6-18.2-14.7-39.8-26-58.9-26h-202.7c-2.6,0-2.6,1.7-2.6,4.3,1.7,55.4,0,114.4-.9,169.8v107.4c.9,13,0,167.2,0,181.9v73.6c0,4.3,1.7,6.9,5.2,6.9h120.4c3.5,0,6.1-3.5,6.1-7.8-1.7-37.2-.9-77.1.9-112.6.9-9.5,13-13,18.2-6.9,12.1,13,27.7,105.7,32.1,123,.9,2.6,2.6,4.3,5.2,4.3h126.5c3.5,0,6.1-4.3,5.2-9.5-2.7-15.4-15.7-87.3-28.7-133.2h0Zm-113.5-171.6c-2.6,26.9-14.7,37.2-27.7,36.4s-13-13.9-13.9-21.7v-75.4c0-10.4,0-20.8.9-27.7,0-5.2,6.1-10.4,13-10.4,11.3,0,22.5,6.1,26,36.4,1.7,19.1,3.4,38.2,1.7,62.4Z" style="fill: #ee6c4d;"/>
  <path d="m1418.64,138.7c0-36.4-15.6-78-36.4-103.1-20.8-25.1-45.9-34.7-75.4-34.7s-104.8-.9-106.6-.9c-31.2,5.2-49.4,13-74.5,45-13.9,18.2-25.1,49.4-25.1,91v274.6c0,26.9,18.2,72.8,32.9,91,16.5,20.8,45.9,41.6,77.1,43.3,1.7.9,67.6,0,76.2,0,32.9,0,50.2-12.1,70.2-26.9,16.5-13,31.2-30.3,41.6-53.7,11.3-26,19.9-50.2,19.9-87.5s.1-200.8.1-238.1h0Zm-190.6,185.4c0-44.2,0-101.4-.9-118.7,0-13.9,2.6-44.2,32.1-44.2,23.4,0,26.9,19.9,27.7,47.6,1.7,31.2-.9,85.8-.9,129.1,0,13.9-3.5,41.6-26.9,41.6-17.2.1-31.1-11.2-31.1-55.4h0Z" style="fill: #ee6c4d;"/>
  <path d="m1699.34,220.11c0-2.6,0-3.5-.9-3.5-12.1,0-23.4,0-35.5-.9-65,0-130.8-1.7-195.8-1.7-.9,0-1.7,1.7-.9,3.5,0,56.3,0,104.8,2.6,161.1,0,1.7,0,3.5.9,3.5,17.3,0,33.8,0,51.1.9,58.9.9,118.7,2.6,177.6,3.5.9,0,1.7-.9,1.7-2.6v-91c0-26.8-.8-45.9-.8-72.8h0Z" style="fill: #ee6c4d;"/>
  <path d="m2061.44,1.85c0-.9-1.7-.9-1.7-.9h-305.8c-3.5,0-6.9,0-6.9,5.2,0,4.3-.9,111.8,1.7,144.7,1.7,15.6,2.6,58.9,2.6,58.9v.9c0,4.3,3.5,8.7,6.9,8.7,0,0,14.7-.9,30.3,0,13,.9,25.1,4.3,35.5,14.7,12.1,12.1,7.8,30.3,9.5,48.5,2.6,22.5-4.3,217.4-3.5,253.8,0,5.2,3.5,8.7,6.9,8.7h134.3c4.3,0,6.9-3.5,6.9-8.7,0-13-1.7-266.8,2.6-296.3,1.7-10.4,7.8-14.7,11.3-17.3,10.4-6.9,35.5-.9,63.2-4.3,4.3-.9,6.9-4.3,6.9-9.5-.9-22.5.9-45,1.7-66.7,1.9-46.8-1.5-93.6-2.4-140.4h0Z" style="fill: #ee6c4d;"/>
  <path d="m2355.14,529.41c22.5-9.5,30.3-19.1,48.5-44.2,26-36.4,24.3-102.2,24.3-149V6.11c0-2.6-1.7-5.2-3.5-5.2h-130.8c-2.6,0-4.3,2.6-4.3,6.1.9,24.3.9,49.4.9,73.6-.9,36.4-.9,156.8-1.7,180.2-.9,23.4,2.6,50.2-9.5,67.6-3.5,4.3-15.6,10.4-26,.9-9.5-9.5-11.3-37.3-13-60.6s0-134.3-.9-166.3V6.21c0-3.5-1.7-6.1-3.5-6.1h-121.3c-1.7,0-3.5,2.6-3.5,6.1v346.5c0,32.1.9,102.2,26.9,141.2,23.4,37.2,67.6,51.1,109.2,51.1h40.7c11.2,0,38-3.5,67.5-15.6h0Z" style="fill: #ee6c4d;"/>
  <path d="m2770.04,402.13c-10.4-34.7-27.7-43.3-19.9-51.1.6,0,.9-.3.9-.9.9-1.7,24.3-34.7,32.9-55.4,8.7-20.8,13-71.9,13-104,0-45.9,1.7-75.4-13.9-109.2-5.2-12.1-19.1-37.2-39-54.6-18.2-14.7-39.8-26-58.9-26h-202.7c-2.6,0-2.6,1.7-2.6,4.3,1.7,55.4,0,114.4-.9,169.8v107.4c.9,13,0,167.2,0,181.9v73.6c0,4.3,1.7,6.9,5.2,6.9h120.4c3.5,0,6.1-3.5,6.1-7.8-1.7-37.2-.9-77.1.9-112.6.9-9.5,13-13,18.2-6.9,12.1,13,27.7,105.7,32.1,123,.9,2.6,2.6,4.3,5.2,4.3h126.5c3.5,0,6.1-4.3,5.2-9.5-2.7-15.4-15.7-87.3-28.7-133.2h0Zm-113.5-171.6c-2.6,26.9-14.7,37.2-27.7,36.4-13-.9-13-13.9-13.9-21.7v-75.4c0-10.4,0-20.8.9-27.7,0-5.2,6.1-10.4,13-10.4,11.3,0,22.5,6.1,26,36.4,1.7,19.1,3.5,38.2,1.7,62.4Z" style="fill: #ee6c4d;"/>
  <path d="m3162.54,138.7c0-36.4-15.6-78-36.4-103.1-20.8-25.1-45.9-34.7-75.4-34.7s-104.8-.9-106.6-.9c-31.2,5.2-49.4,13-74.5,45-13.9,18.2-25.1,49.4-25.1,91v274.6c0,26.9,18.2,72.8,32.9,91,16.5,20.8,45.9,41.6,77.1,43.3,1.7.9,67.6,0,76.2,0,32.9,0,50.2-12.1,70.2-26.9,16.5-13,31.2-30.3,41.6-53.7,11.3-26,19.9-50.2,19.9-87.5s.1-200.8.1-238.1h0Zm-190.6,185.4c0-44.2,0-101.4-.9-118.7,0-13.9,2.6-44.2,32.1-44.2,23.4,0,26.9,19.9,27.7,47.6,1.7,31.2-.9,85.8-.9,129.1,0,13.9-3.5,41.6-26.9,41.6-17.3.1-31.1-11.2-31.1-55.4h0Z" style="fill: #ee6c4d;"/>
  <path d="m503.2,610.14c0-.6-1.2-.6-1.2-.6H6c-3.6,0-6,2.4-6,5.4v30c0,22.8,3.6,109.2,3.6,109.2v.6c0,3,2.4,6,6,6h68.4c12.6,0,25.2-.6,37.8,0,10.8.6,21,3,29.4,10.2,10.2,8.4,5.4,114.6,5.4,131.3.6,30-1.2,52.8,0,78,0,3.6,2.4,6,6,6h197.3c3.6,0,6.6-2.4,6-6,0-9-.6-191.3,3.6-203.3,1.8-4.8,4.2-8.4,8.4-11.4s9.6-3.6,14.4-4.2c14.4-1.2,89.4,1.2,111.6-1.2,3.6-.6,6-3,5.4-6.6-.7-15.7-.1-111-.1-143.4h0Z" style="fill: #70e500;"/>
  <path d="m993.8,871.61c-5.4-7.8-9-14.4-.6-19.8l.6-.6c.6-.6,22.2-15,34.2-41.4,10.8-22.2,12.6-55.8,12.6-66,0-27.6.6-58.8-14.4-82.8-4.8-7.2-16.2-25.8-36-37.2-4.8-3-25.8-14.4-61.2-14.4h-386.8c-1.8,0-3,3-3,4.8,1.2,38.4,0,77.4-1.2,115.8v74.4c.6,9,0,176.9,0,176.9,0,2.4,2.4,4.8,4.8,4.8h208.7c3,0,5.4-2.4,5.4-5.4-1.8-25.8-1.2-53.4,1.2-78.6.6-6,12.6-8.4,17.4-4.8,11.4,9.6,43.2,73.8,48,85.8.6,1.8,2.4,3,4.8,3h206.9c3,0,6-3,4.8-6.6-2.4-10.7-26.4-77.9-46.2-107.9Zm-162-91.1c-18,1.2-79.8,1.8-84.6,1.2-8.4-.6-10.8-42.6,0-42.6s78.6-1.2,87,1.2c6.6,1.2,21.6,4.8,21.6,19.2s-11.4,20.4-24,21h0Z" style="fill: #70e500;"/>
  <path d="m1573.7,887.22c0-3-2.4-5.4-4.8-4.8-31.2.6-151.7,3.6-181.1,4.2-16.2,0-32.4,2.4-48-1.2-13.2-3.6-27-13.8-19.2-29.4,7.2-13.8,30.6-11.4,42.6-12,13.8-1.2,94.8,1.8,121.2,2.4h84.6c2.4,0,4.8-2.4,4.8-4.8,0-7.8-1.2-71.4-1.2-71.4,0-3-1.8-5.4-4.8-5.4-7.8.6-181.7,1.2-210.5,1.2-9.6.6-20.4.6-29.4-2.4-7.2-2.4-15-9-14.4-18,1.2-14.4,17.4-18,28.8-19.8,30.6-4.8,61.8-3.6,92.4-2.4,21.6,1.2,133.1.6,133.1.6,3,0,4.8-2.4,4.8-5.4,0,0,1.8-105,1.8-105.6-.6-2.4-3-3.6-4.8-3.6h-491.3c-3,0-5.4,2.4-4.8,5.4,0,1.2.6,2.4.6,3.6,8.4,59.4,1.2,119.4.6,178.7-.6,61.2-.6,122.9-3,184.1-.6,3,1.8,4.8,4.8,4.8h494.8c3,0,4.8-1.8,4.8-4.8,0,.2-2.4-83.8-2.4-94h0Z" style="fill: #70e500;"/>
  <path d="m2091.3,953.74c-21-58.8-37.8-118.8-55.2-178.7-15.6-53.4-30.6-106.8-38.4-161.9-.6-2.4-2.4-3.6-4.8-3.6h-293.8c-2.4,0-4.2,1.8-4.8,4.2-.6,8.4-2.4,17.4-3.6,25.8-11.4,60-69,287.3-85.2,340.7-1.2,3,1.2,6,4.2,6h193.1c2.4,0,4.8-1.8,4.8-4.2.6-14.4,4.8-50.4,7.8-70.2,3-16.8,15-16.8,26.4-16.8s23.4,4.8,25.2,15.6c1.8,9,3,21.6,4.2,33,2.4,18.6,4.2,36,4.2,38.4s2.4,4.2,4.8,4.2h215.9c3.6,0,6-3,4.8-6-3.6-9.1-6.6-18.1-9.6-26.5Zm-259.1-211.1c2.4-14.4,2.4-24,10.2-24,9-.6,13.8,31.8,15,47.4,1.2,15,9.6,43.2-11.4,46.2-23.4,3.6-22.2-22.2-13.8-69.6h0Z" style="fill: #70e500;"/>
  <path d="m2632.9,610.15c0-.6-1.2-.6-1.2-.6h-496c-3.6,0-6,2.4-6,5.4v30c0,22.8,3.6,109.2,3.6,109.2v.6c0,3,2.4,6,6,6h68.4c12.6,0,25.2-.6,37.8,0,10.8.6,21,3,29.4,10.2,10.2,8.4,5.4,114.6,5.4,131.3.6,30-1.2,52.8,0,78,0,3.6,2.4,6,6,6h197.3c3.6,0,6.6-2.4,6-6,0-9-.6-191.3,3.6-203.3,1.8-4.8,4.2-8.4,8.4-11.4s9.6-3.6,14.4-4.2c14.4-1.2,89.4,1.2,111.6-1.2,3.6-.6,6-3,5.4-6.6-.7-15.7-.1-111-.1-143.4h0Z" style="fill: #70e500;"/>
  <path d="m3165.5,609.52h-388c-8.4,0-38.4,3.6-60.6,18-19.8,12.6-32.4,36-36.6,45-16.2,35.4-19.8,76.2-7.2,112.2,4.2,13.2,14.4,27.6,28.8,39.6,28.2,22.2,170.9,18.6,181.7,18,21-1.8,41.4,1.2,43.8,13.8,3,15.6-8.4,18-15.6,19.8-22.2,6-224.9.6-238.1-.6-3,0-5.4,2.4-5.4,5.4-.6,24,1.2,48-.6,72-.6,9.6-1.2,19.2-1.2,28.8,0,3,2.4,4.8,4.8,4.8h334.7c.6,0,1.8-.6,3-.6h27.6c21-1.2,39.6-3,60.6-9,9-3,32.4-13.2,46.8-33,14.4-20.4,19.2-49.2,19.8-55.2,1.2-23.4-1.2-45.6-9-67.8-7.8-21-16.2-27-33-41.4-20.4-17.4-41.4-21-68.4-22.8-25.8-1.8-58.2-1.8-84.6-.6-22.2.6-34.8,1.8-55.8-1.2-6-1.2-17.4-2.4-17.4-16.8s25.2-16.8,55.2-18c20.4,0,53.4,1.2,87,1.8,48.6,0,85.2,3,125.9,4.2,3,0,5.4-2.4,5.4-5.4-.6-9.6-3-32.4-3-42,0-22.2,3-40.8.6-67.8,0-.6-.6-.6-1.2-1.2Z" style="fill: #70e500;"/>
</svg>